<?xml version="1.0" encoding="UTF-8" standalone="no"?>
<svg
   xmlns:dc="http://purl.org/dc/elements/1.1/"
   xmlns:cc="http://creativecommons.org/ns#"
   xmlns:rdf="http://www.w3.org/1999/02/22-rdf-syntax-ns#"
   xmlns:svg="http://www.w3.org/2000/svg"
   xmlns="http://www.w3.org/2000/svg"
   xmlns:xlink="http://www.w3.org/1999/xlink"
   xmlns:sodipodi="http://sodipodi.sourceforge.net/DTD/sodipodi-0.dtd"
   xmlns:inkscape="http://www.inkscape.org/namespaces/inkscape"
   width="83.043pt"
   height="109.477pt"
   viewBox="0 0 83.043 109.477"
   version="1.2"
   id="svg81"
   sodipodi:docname="logo.pdf"
   inkscape:version="0.92.3 (2405546, 2018-03-11)">
  <metadata
     id="metadata85">
    <rdf:RDF>
      <cc:Work
         rdf:about="">
        <dc:format>image/svg+xml</dc:format>
        <dc:type
           rdf:resource="http://purl.org/dc/dcmitype/StillImage" />
        <dc:title></dc:title>
      </cc:Work>
    </rdf:RDF>
  </metadata>
  <sodipodi:namedview
     pagecolor="#ffffff"
     bordercolor="#666666"
     borderopacity="1"
     objecttolerance="10"
     gridtolerance="10"
     guidetolerance="10"
     inkscape:pageopacity="0"
     inkscape:pageshadow="2"
     inkscape:window-width="640"
     inkscape:window-height="480"
     id="namedview83"
     showgrid="false"
     inkscape:zoom="1.616778"
     inkscape:cx="44.538003"
     inkscape:cy="72.984665"
     inkscape:window-x="0"
     inkscape:window-y="0"
     inkscape:window-maximized="0"
     inkscape:current-layer="svg81" />
  <defs
     id="defs28">
    <g
       id="g20">
      <symbol
         overflow="visible"
         id="glyph0-0">
        <path
           style="stroke:none;"
           d=""
           id="path2" />
      </symbol>
      <symbol
         overflow="visible"
         id="glyph0-1">
        <path
           style="stroke:none;"
           d="M 10.671875 -9.375 L 10.6875 -9.359375 L 10.6875 -1.125 C 10.6875 -0.609375 10.65625 -0.4375 9.546875 -0.4375 L 9.203125 -0.4375 L 9.203125 0 C 9.734375 -0.046875 10.71875 -0.046875 11.28125 -0.046875 C 11.828125 -0.046875 12.796875 -0.046875 13.328125 0 L 13.328125 -0.4375 L 12.984375 -0.4375 C 11.875 -0.4375 11.84375 -0.609375 11.84375 -1.125 L 11.84375 -8.671875 C 11.84375 -9.1875 11.875 -9.359375 12.984375 -9.359375 L 13.328125 -9.359375 L 13.328125 -9.796875 L 10.90625 -9.796875 C 10.578125 -9.796875 10.53125 -9.796875 10.40625 -9.53125 L 7.078125 -1.359375 L 3.765625 -9.53125 C 3.65625 -9.796875 3.578125 -9.796875 3.265625 -9.796875 L 0.84375 -9.796875 L 0.84375 -9.359375 L 1.1875 -9.359375 C 2.296875 -9.359375 2.328125 -9.1875 2.328125 -8.671875 L 2.328125 -1.5 C 2.328125 -1.125 2.328125 -0.4375 0.84375 -0.4375 L 0.84375 0 C 1.34375 -0.015625 2.046875 -0.046875 2.53125 -0.046875 C 3 -0.046875 3.703125 -0.015625 4.203125 0 L 4.203125 -0.4375 C 2.71875 -0.4375 2.71875 -1.125 2.71875 -1.5 L 2.71875 -9.265625 L 2.734375 -9.28125 L 6.40625 -0.265625 C 6.46875 -0.125 6.546875 0 6.6875 0 C 6.828125 0 6.90625 -0.125 6.953125 -0.265625 Z M 10.671875 -9.375 "
           id="path5" />
      </symbol>
      <symbol
         overflow="visible"
         id="glyph0-2">
        <path
           style="stroke:none;"
           d="M 6.828125 -6.671875 C 6.53125 -6.984375 5.828125 -7.578125 4.75 -7.578125 C 2.578125 -7.578125 0.734375 -5.859375 0.734375 -3.6875 C 0.734375 -1.5 2.578125 0.203125 4.75 0.203125 C 6.609375 0.203125 7.75 -1.296875 7.75 -2.53125 C 7.75 -2.671875 7.75 -2.765625 7.5625 -2.765625 C 7.40625 -2.765625 7.40625 -2.6875 7.390625 -2.53125 C 7.28125 -1.015625 6.046875 -0.15625 4.84375 -0.15625 C 4.125 -0.15625 1.96875 -0.546875 1.96875 -3.6875 C 1.96875 -6.875 4.1875 -7.21875 4.828125 -7.21875 C 5.875 -7.21875 7.09375 -6.46875 7.375 -4.640625 C 7.40625 -4.546875 7.421875 -4.453125 7.5625 -4.453125 C 7.75 -4.453125 7.75 -4.53125 7.75 -4.8125 L 7.75 -7.234375 C 7.75 -7.453125 7.75 -7.578125 7.609375 -7.578125 C 7.515625 -7.578125 7.5 -7.546875 7.390625 -7.40625 Z M 6.828125 -6.671875 "
           id="path8" />
      </symbol>
      <symbol
         overflow="visible"
         id="glyph0-3">
        <path
           style="stroke:none;"
           d="M 2.6875 -6.34375 C 2.6875 -6.921875 2.75 -7.015625 3.71875 -7.015625 L 3.71875 -7.375 C 3.296875 -7.359375 2.484375 -7.328125 2.171875 -7.328125 C 1.84375 -7.328125 1.046875 -7.359375 0.609375 -7.375 L 0.609375 -7.015625 C 1.59375 -7.015625 1.65625 -6.921875 1.65625 -6.3125 L 1.65625 -3.203125 C 1.65625 -2.84375 1.65625 -2.3125 1.671875 -2.125 C 1.8125 -0.96875 2.953125 0.203125 4.546875 0.203125 C 6.203125 0.203125 7.125 -1.265625 7.140625 -2.3125 L 7.140625 -6.125 C 7.15625 -6.703125 7.53125 -7.015625 8.171875 -7.015625 L 8.171875 -7.375 C 7.8125 -7.34375 7.0625 -7.328125 6.96875 -7.328125 C 6.5625 -7.328125 6.15625 -7.34375 5.75 -7.375 L 5.75 -7.015625 C 6.78125 -7.015625 6.78125 -6.25 6.78125 -5.921875 L 6.78125 -2.546875 C 6.78125 -0.890625 5.546875 -0.15625 4.578125 -0.15625 C 4.140625 -0.15625 2.6875 -0.328125 2.6875 -2.484375 Z M 2.6875 -6.34375 "
           id="path11" />
      </symbol>
      <symbol
         overflow="visible"
         id="glyph0-4">
        <path
           style="stroke:none;"
           d="M 6.78125 -2.78125 L 6.421875 -2.78125 C 6.3125 -1.640625 6.171875 -0.359375 4.15625 -0.359375 L 3.25 -0.359375 C 2.75 -0.359375 2.6875 -0.40625 2.6875 -0.96875 L 2.6875 -6.296875 C 2.6875 -7.015625 2.890625 -7.015625 3.96875 -7.015625 L 3.96875 -7.375 C 3.5625 -7.359375 2.640625 -7.328125 2.203125 -7.328125 C 1.84375 -7.328125 1.140625 -7.359375 0.609375 -7.375 L 0.609375 -7.015625 C 1.578125 -7.015625 1.65625 -6.921875 1.65625 -6.34375 L 1.65625 -1.03125 C 1.65625 -0.4375 1.578125 -0.359375 0.609375 -0.359375 L 0.609375 0 L 6.515625 0 Z M 6.78125 -2.78125 "
           id="path14" />
      </symbol>
      <symbol
         overflow="visible"
         id="glyph0-5">
        <path
           style="stroke:none;"
           d="M 7 -7.328125 L 0.609375 -7.328125 L 0.609375 -6.96875 C 1.578125 -6.96875 1.65625 -6.890625 1.65625 -6.296875 L 1.65625 -1.03125 C 1.65625 -0.4375 1.578125 -0.359375 0.609375 -0.359375 L 0.609375 0 L 7.171875 0 L 7.59375 -2.78125 L 7.234375 -2.78125 C 6.984375 -1.046875 6.640625 -0.359375 4.8125 -0.359375 L 3.25 -0.359375 C 2.75 -0.359375 2.6875 -0.40625 2.6875 -0.96875 L 2.6875 -3.625 L 3.6875 -3.625 C 4.75 -3.625 4.921875 -3.34375 4.921875 -2.375 L 5.28125 -2.375 L 5.28125 -5.234375 L 4.921875 -5.234375 C 4.921875 -4.28125 4.75 -3.984375 3.6875 -3.984375 L 2.6875 -3.984375 L 2.6875 -6.359375 C 2.6875 -6.921875 2.75 -6.96875 3.25 -6.96875 L 4.71875 -6.96875 C 6.390625 -6.96875 6.75 -6.46875 6.90625 -4.90625 L 7.265625 -4.90625 Z M 7 -7.328125 "
           id="path17" />
      </symbol>
    </g>
    <clipPath
       id="clip1">
      <path
         d="M 50 44 L 83.042969 44 L 83.042969 86 L 50 86 Z M 50 44 "
         id="path22" />
    </clipPath>
    <clipPath
       id="clip2">
      <path
         d="M 49 5 L 83.042969 5 L 83.042969 51 L 49 51 Z M 49 5 "
         id="path25" />
    </clipPath>
  </defs>
  <g
     id="surface892">
    <path
       style="fill:none;stroke:#000000;stroke-width:0.3985;stroke-linecap:butt;stroke-linejoin:miter;stroke-miterlimit:10;stroke-opacity:1"
       d="m 3.472281,0.992812 c 0,0 1.191406,-6.847656 5.953125,-14.089843 4.863281,-7.242188 6.449219,-9.722657 6.449219,-9.722657"
       transform="matrix(1,0,0,-1,54.766,58.735)"
       id="path30"
       inkscape:connector-curvature="0" />
    <g
       clip-path="url(#clip1)"
       id="g34"
       style="clip-rule:nonzero">
      <path
         style="fill:none;stroke:#000000;stroke-width:0.79701;stroke-linecap:butt;stroke-linejoin:miter;stroke-miterlimit:10;stroke-opacity:1"
         d="m 12.401969,2.977187 c 0,0 -4.5625,-4.367187 -5.160157,-5.953125 -0.496093,-1.589843 1.289063,-0.992187 1.289063,-0.992187 0,0 6.550781,2.082031 3.871094,-0.398438 -2.679688,-2.480468 -5.457032,-5.652343 -1.191407,-4.265625 4.167969,1.390625 1.488282,-0.496093 0.992188,-1.191406 -0.496094,-0.59375 -2.378906,-3.570312 2.679687,-1.1875 5.058594,2.28125 0.09766,-4.863281 0.09766,-4.863281"
         transform="matrix(1,0,0,-1,54.766,58.735)"
         id="path32"
         inkscape:connector-curvature="0" />
    </g>
    <g
       clip-path="url(#clip2)"
       id="g38"
       style="clip-rule:nonzero">
      <path
         style="fill:none;stroke:#000000;stroke-width:0.3985;stroke-linecap:butt;stroke-linejoin:miter;stroke-miterlimit:10;stroke-opacity:1"
         d="m 6.944937,13.492812 c 0,0 4.863282,4.664063 6.746094,7.042969 1.886719,2.382813 5.554688,7.542969 6.945313,9.722656 1.289062,2.183594 4.367187,7.9375 5.160156,9.824219 0.695312,1.886719 1.6875,5.953125 1.785156,6.84375 0.09766,0.796875 0.496094,0.300781 0.496094,-0.691406 C 27.98009,45.340469 27.284781,42.465469 24.804312,40.777969 22.323844,38.992812 15.378531,34.723281 13.691031,33.832656 12.003531,32.938125 6.944937,29.26625 4.960562,26.789687 2.878531,24.309219 0.694937,20.934219 0.792594,19.149062 0.894156,17.363906 1.39025,17.86 1.39025,17.86"
         transform="matrix(1,0,0,-1,54.766,58.735)"
         id="path36"
         inkscape:connector-curvature="0" />
    </g>
    <path
       style="fill:none;stroke:#000000;stroke-width:0.3985;stroke-linecap:butt;stroke-linejoin:miter;stroke-miterlimit:10;stroke-opacity:1"
       d="m -14.090219,20.637344 c 0,0 -2.082031,7.9375 -2.578125,9.324218 -0.496094,1.390625 -2.875,6.550782 -3.570312,8.335938 -0.695313,1.6875 -4.863282,10.613281 -6.152344,12.996094 -1.191406,2.382812 -0.695313,1.6875 -1.390625,3.570312 -0.792969,1.886719 -1.386719,3.671875 0.101562,2.878906 1.386719,-0.792968 0.199219,-3.375 -0.695312,-5.058593 -0.992188,-1.6875 -3.671875,-6.253907 -4.167969,-9.128907 -0.496094,-2.777343 -0.695312,-8.632812 3.273438,-12.996093 3.871093,-4.464844 7.144531,-7.441407 8.433593,-9.226563 1.390625,-1.886719 0.992188,-2.183594 0.992188,-2.183594"
       transform="matrix(1,0,0,-1,54.766,58.735)"
       id="path40"
       inkscape:connector-curvature="0" />
    <path
       style="fill:none;stroke:#000000;stroke-width:0.3985;stroke-linecap:butt;stroke-linejoin:miter;stroke-miterlimit:10;stroke-opacity:1"
       d="m -22.42225,-9.522813 c 0,0 0,-0.398437 0.992187,-1.292968"
       transform="matrix(1,0,0,-1,54.766,58.735)"
       id="path42"
       inkscape:connector-curvature="0" />
    <path
       style="fill:none;stroke:#000000;stroke-width:0.3985;stroke-linecap:butt;stroke-linejoin:miter;stroke-miterlimit:10;stroke-opacity:1"
       d="m -33.137094,-21.331406 c 0,0 0.695313,-2.875 2.28125,-3.472657 1.585938,-0.59375 4.167969,1.785157 4.464844,2.28125 0.398437,0.597657 4.464844,5.457032 5.65625,7.144532 1.191406,1.6875 5.554687,8.433593 6.644531,9.824218 L -9.723031,0.2975 c -1.785157,-2.480469 -2.679688,-3.769531 -9.921875,-8.136719 -4.5625,-2.777344 -4.464844,-2.480469 -8.632813,-4.066406 -3.472656,-1.390625 -7.042969,-2.382813 -9.621094,-2.777344 -2.582031,-0.398437 -4.761718,-0.496094 -6.648437,-0.296875 -1.886719,0.195313 -3.570313,0.792969 -5.160156,1.785156 -1.386719,0.792969 -2.675782,1.785157 -3.472657,3.074219 -0.792968,1.191406 -1.1875,2.582031 -1.289062,3.96875 -0.09766,1.191406 0.101562,2.382813 0.496094,3.472656 0.496093,1.390625 1.289062,2.679688 2.28125,3.769532 4.863281,4.960937 9.425781,7.046875 17.761718,10.914062 8.433594,3.871094 14.582032,3.871094 14.582032,3.871094"
       transform="matrix(1,0,0,-1,54.766,58.735)"
       id="path44"
       inkscape:connector-curvature="0" />
    <path
       style="fill:none;stroke:#000000;stroke-width:0.3985;stroke-linecap:butt;stroke-linejoin:miter;stroke-miterlimit:10;stroke-opacity:1"
       d="m -26.488656,-11.210313 c 0,0 0.496093,-1.09375 1.488281,-1.984375"
       transform="matrix(1,0,0,-1,54.766,58.735)"
       id="path46"
       inkscape:connector-curvature="0" />
    <path
       style="fill:none;stroke:#000000;stroke-width:0.3985;stroke-linecap:butt;stroke-linejoin:miter;stroke-miterlimit:10;stroke-opacity:1"
       d="m -29.566781,-12.600938 c 0,0 0.894531,-1.882812 1.984375,-2.183593"
       transform="matrix(1,0,0,-1,54.766,58.735)"
       id="path48"
       inkscape:connector-curvature="0" />
    <path
       style="fill:none;stroke:#000000;stroke-width:0.3985;stroke-linecap:butt;stroke-linejoin:miter;stroke-miterlimit:10;stroke-opacity:1"
       d="m -33.832406,-13.792344 c 0,0 1.585937,-2.378906 2.777343,-2.875"
       transform="matrix(1,0,0,-1,54.766,58.735)"
       id="path50"
       inkscape:connector-curvature="0" />
    <path
       style="fill:none;stroke:#000000;stroke-width:0.3985;stroke-linecap:butt;stroke-linejoin:miter;stroke-miterlimit:10;stroke-opacity:1"
       d="m -37.504281,-14.682969 c 0,0 1.6875,-2.878906 2.679687,-3.273437"
       transform="matrix(1,0,0,-1,54.766,58.735)"
       id="path52"
       inkscape:connector-curvature="0" />
    <path
       style="fill:none;stroke:#000000;stroke-width:0.3985;stroke-linecap:butt;stroke-linejoin:miter;stroke-miterlimit:10;stroke-opacity:1"
       d="m -46.8285,-14.585313 c 0,0 2.976562,-3.867187 3.769531,-3.96875 0.792969,-0.09766 6.449219,-0.199218 8.929688,0.496094 2.480468,0.695313 16.667968,8.535156 16.667968,11.511719"
       transform="matrix(1,0,0,-1,54.766,58.735)"
       id="path54"
       inkscape:connector-curvature="0" />
    <path
       style="fill:none;stroke:#000000;stroke-width:0.3985;stroke-linecap:butt;stroke-linejoin:miter;stroke-miterlimit:10;stroke-opacity:1"
       d="m -41.371469,-15.179063 2.378906,-3.375"
       transform="matrix(1,0,0,-1,54.766,58.735)"
       id="path56"
       inkscape:connector-curvature="0" />
    <path
       style="fill:none;stroke:#000000;stroke-width:0.3985;stroke-linecap:butt;stroke-linejoin:miter;stroke-miterlimit:10;stroke-opacity:1"
       d="m -11.308969,-12.600938 c 0,0 2.082031,-6.050781 2.976563,-7.441406 0.890625,-1.386719 3.171875,-5.554687 3.371093,-6.84375"
       transform="matrix(1,0,0,-1,54.766,58.735)"
       id="path58"
       inkscape:connector-curvature="0" />
    <path
       style="fill:none;stroke:#000000;stroke-width:0.79701;stroke-linecap:butt;stroke-linejoin:miter;stroke-miterlimit:10;stroke-opacity:1"
       d="M -8.23475,26.39125 -9.027719,22.4225 c 0,0 -1.6875,-6.945313 1.386719,-0.59375 3.078125,6.347656 2.085937,2.28125 1.589844,-0.300781 -0.398438,-2.578125 -0.597657,-3.570313 1.488281,-0.59375 2.183594,2.976562 1.191406,0.695312 0.992187,-1.191407 C -3.769906,17.86 -3.67225,16.76625 -2.379281,18.949844"
       transform="matrix(1,0,0,-1,54.766,58.735)"
       id="path60"
       inkscape:connector-curvature="0" />
    <path
       style="fill:none;stroke:#000000;stroke-width:0.3985;stroke-linecap:butt;stroke-linejoin:miter;stroke-miterlimit:10;stroke-opacity:1"
       d="m -27.183969,3.867812 c 0,0 -0.398437,1.09375 -0.296875,1.6875 0.09766,1.390625 0.59375,2.878907 1.386719,4.070313 1.09375,1.585937 2.480469,4.363281 4.464844,3.964844 0.695312,-0.09766 0.894531,-1.386719 0.894531,-1.785157 0,-0.296875 -0.199219,-2.179687 -0.496094,-3.273437 -0.496094,-1.191406 -0.792969,-2.679688 -1.886719,-3.175781 -1.191406,-0.394532 -1.6875,0.496093 -1.6875,1.191406 0.101563,0.496094 0.894532,1.09375 1.488282,0.894531 0.496093,-0.101562 0.992187,-0.695312 0.597656,-1.289062"
       transform="matrix(1,0,0,-1,54.766,58.735)"
       id="path62"
       inkscape:connector-curvature="0" />
    <path
       style="fill:none;stroke:#000000;stroke-width:0.3985;stroke-linecap:butt;stroke-linejoin:miter;stroke-miterlimit:10;stroke-opacity:1"
       d="m -14.48475,4.465469 c 0,0 0.792969,1.089843 0.890625,1.6875 0.300781,0.992187 0.398437,2.082031 0.199219,3.074218 -0.199219,0.792969 -0.296875,2.082032 -1.089844,2.28125 -0.992188,0.296875 -1.6875,-1.089843 -2.28125,-1.785156 -0.992188,-1.289062 -1.886719,-2.679687 -2.183594,-4.265625 -0.199219,-0.992187 -0.695312,-2.480469 0.09766,-2.976562 0.496094,-0.296875 1.488282,0 1.6875,0.496093 0.199219,0.695313 -0.394531,1.585938 -1.089843,1.882813 -0.296875,0.101562 -0.894532,-0.195313 -0.894532,-0.195313"
       transform="matrix(1,0,0,-1,54.766,58.735)"
       id="path64"
       inkscape:connector-curvature="0" />
    <g
       style="fill:#000000;fill-opacity:1"
       id="g78">
      <use
         xlink:href="#glyph0-1"
         x="10.084"
         y="106.156"
         id="use66"
         width="100%"
         height="100%" />
      <use
         xlink:href="#glyph0-2"
         x="24.270958"
         y="106.156"
         id="use68"
         width="100%"
         height="100%" />
      <use
         xlink:href="#glyph0-1"
         x="32.750996"
         y="106.156"
         id="use70"
         width="100%"
         height="100%" />
      <use
         xlink:href="#glyph0-3"
         x="46.937954"
         y="106.156"
         id="use72"
         width="100%"
         height="100%" />
      <use
         xlink:href="#glyph0-4"
         x="55.736477"
         y="106.156"
         id="use74"
         width="100%"
         height="100%" />
      <use
         xlink:href="#glyph0-5"
         x="63.100384"
         y="106.156"
         id="use76"
         width="100%"
         height="100%" />
    </g>
  </g>
</svg>
